<?xml version="1.0" encoding="UTF-8"?>
<svg width="12px" height="13px" viewBox="0 0 12 13" version="1.1" xmlns="http://www.w3.org/2000/svg" xmlns:xlink="http://www.w3.org/1999/xlink">
    <!-- Generator: Sketch 52.6 (67491) - http://www.bohemiancoding.com/sketch -->
    <title>Group 8</title>
    <desc>Created with Sketch.</desc>
    <g id="Homepage" stroke="none" stroke-width="1" fill="none" fill-rule="evenodd">
        <g id="Homepage-—-Callout-Style-Copy" transform="translate(-962.000000, -4120.000000)" stroke="#FFFFFF">
            <g id="Group-9" transform="translate(816.000000, 4105.000000)">
                <g id="Group-8" transform="translate(147.000000, 16.000000)">
                    <g id="Group-7" transform="translate(5.500000, 5.500000) scale(1, -1) translate(-5.500000, -5.500000) ">
                        <polyline id="Stroke-1" transform="translate(5.261500, 2.630792) rotate(-180.000000) translate(-5.261500, -2.630792) " points="-3.85469434e-13 -1.26565425e-13 5.26158415 5.26158415 10.523 -1.26565425e-13"></polyline>
                        <path d="M5.2615,0 L5.2615,10.5136719" id="Line-5" stroke-linecap="square" fill-rule="nonzero"></path>
                    </g>
                </g>
            </g>
        </g>
    </g>
</svg>